…
#> 
#> options:        ENCODING=CP932 
#> Reading layer `N03-15_33_150101' from data source `/private/var/folders/_k/8syww8ls39n5dkvwy1yk8dgc0000gn/T/RtmpNHLfZJ/N03-150101_33_GML/N03-20150101_33_GML/N03-15_33_150101.shp' 
#>   using driver `ESRI Shapefile'
#> Simple feature collection with 402 features and 5 fields
#> Geometry type: POLYGON
#> Dimension:     XY
#> Bounding box:  xmin: 133.2668 ymin: 34.29833 xmax: 134.4132 ymax: 35.3529
#> Geodetic CRS:  JGD2000
#> Simple feature collection with 402 features and 5 fields
#> Geometry type: POLYGON
#> Dimension:     XY
#> Bounding box:  xmin: 133.2668 ymin: 34.29833 xmax: 134.4132 ymax: 35.3529
#> Geodetic CRS:  JGD2000
#> # A tibble: 402 × 6
#>   prefectureName subPrefectureName countyName
#> * <chr>          <chr>             <chr>     
#> 1 岡山県         NA                岡山市    
#> 2 岡山県         NA                岡山市    
#> 3 岡山県         NA                岡山市    
#> 4 岡山県         NA                岡山市    
#> 5 岡山県         NA                岡山市    
#> # ℹ 397 more rows
#> # ℹ 3 more variables: cityName <chr>,
#> #   administrativeAreaCode <chr>,
#> #   geometry <POLYGON [°]>
#> # ℹ Use `print(n = ...)` to see more rows
…
